"id";"code";"Titre1";"Titre2";"Titre3";"Competence";"T1";"T2";"T3";"Cpt";"Commentaire";"classeType";"ordre"
1000;"S2";"SOCLE 2016";;;;"S2";;;;;-1;0
1100;"S2D1";;"Domaine 1 : les langages pour penser et communiquer";;;"S2";"D1";;;;-1;1
1110;"S2D1O1";;;;"Objectif 1. Comprendre, s'exprimer en utilisant la langue française à l'oral et à l'écrit";"S2";"D1";;"O1";;-1;2
1120;"S2D1O2";;;;"Objectif 2. Comprendre, s'exprimer en utilisant une langue étrangère et, le cas échéant, une langue régionale";"S2";"D1";;"O2";;-1;3
1130;"S2D1O3";;;;"Objectif 3. Comprendre, s'exprimer en utilisant les langages mathématiques, scientifiques et informatiques";"S2";"D1";;"O3";;-1;4
1140;"S2D1O4";;;;"Objectif 4. Comprendre, s'exprimer en utilisant les langages des arts et du corps";"S2";"D1";;"O4";;-1;5
1200;"S2D2";;"Domaine 2 : les méthodes et outils pour apprendre";;;"S2";"D2";;;;-1;6
1210;"S2D2O1";;;;"Objectif 1. Organisation du travail personnel";"S2";"D2";;"O1";;-1;7
1220;"S2D2O2";;;;"Objectif 2. Coopération et réalisation de projets";"S2";"D2";;"O2";;-1;8
1230;"S2D2O3";;;;"Objectif 3. Médias, démarches de recherche et de traitement de l'information";"S2";"D2";;"O3";;-1;9
1240;"S2D2O4";;;;"Objectif 4. Outils numériques pour échanger et communiquer";"S2";"D2";;"O4";;-1;10
1300;"S2D3";;"Domaine 3 : la formation de la personne et du citoyen";;;"S2";"D3";;;;-1;11
1310;"S2D3O1";;;;"Objectif 1. Expression de la sensibilité et des opinions, respect des autres";"S2";"D3";;"O1";;-1;12
1320;"S2D3O2";;;;"Objectif 2. La règle et le droit";"S2";"D3";;"O2";;-1;13
1330;"S2D3O3";;;;"Objectif 3. Réflexion et discernement";"S2";"D3";;"O3";;-1;14
1340;"S2D3O4";;;;"Objectif 4. Responsabilité, sens de l'engagement et de l'initiative";"S2";"D3";;"O4";;-1;15
1400;"S2D4";;"Domaine 4 : les systèmes naturels et les systèmes techniques";;;"S2";"D4";;;;-1;16
1410;"S2D4O1";;;;"Objectif 1. Démarches scientifiques";"S2";"D4";;"O1";;-1;17
1420;"S2D4O2";;;;"Objectif 2. Conception, création, réalisation";"S2";"D4";;"O2";;-1;18
1430;"S2D4O3";;;;"Objectif 3. Responsabilités individuelles et collectives";"S2";"D4";;"O3";;-1;19
1500;"S2D5";;"Domaine 5 : les représentations du monde et l'activité humaine";;;"S2";"D5";;;;-1;20
1510;"S2D5O1";;;;"Objectif 1. L'espace et le temps";"S2";"D5";;"O1";;-1;21
1520;"S2D5O2";;;;"Objectif 2. Organisations et représentations du monde";"S2";"D5";;"O2";;-1;22
1530;"S2D5O3";;;;"Objectif 3. Invention, élaboration, production";"S2";"D5";;"O3";;-1;23
3000;"P3";"AUTRES (GARDÉS DE L'ANCIEN SOCLE)";;;;"P3";;;;;-1;24
3001;"P3C7";"";"SAVOIR NAGER";"";"";"P3";"C7";"";"";"";-1;25
3002;"P3C7T2L4";;;;"Savoir nager";"P3";"C7";;"T2L4";;-1;26
3100;"P2C2";;"NIVEAU A1 (langue vivante)";;;"P2";"C2";;;;-1;27
3199;"P2C2A1";;;;"Niveau A1";"P2";"C2";;"A1";;-1;28
3200;"P3C2";;"NIVEAU A2 (langue vivante)";;;"P3";"C2";;;;-1;29
3299;"P3C2A2";;;;"Niveau A2";"P3";"C2";;"A2";;-1;30
3300;"P4C2";;"NIVEAU B1 (langue vivante)";;;"P4";"C2";;;;-1;31
3399;"P4C2B1";;;;"Niveau B1";"P4";"C2";;"B1";;-1;32
