"id";"code";"Titre1";"Titre2";"Titre3";"Competence";"T1";"T2";"T3";"Cpt";"Commentaire";"classeType";"ordre"
0;"CP";"COMPÉTENCES PARTAGÉES";"";"";"";"CP";"";"";"";"";-1;0
1;"CP_";"";"";"Plusieurs enseignants peuvent avoir évalué ces compétences.";"";"CP";"";"_";"";"";-1;1
10;"CP_10";"";"";"";"Respecter les règles de vie collective";"CP";"";"_";"10";"";-1;2
11;"CP_11";"";"";"";"Organiser son travail personnel";"CP";"";"_";"11";"";-1;3
12;"CP_12";"";"";"";"S'impliquer en classe";"CP";"";"_";"12";"";-1;4
20;"CP_20";"";"";"";"S'exprimer à l'oral en langue française";"CP";"";"_";"20";"";-1;5
21;"CP_21";"";"";"";"Lire et comprendre un texte, un énoncé ou une consigne";"CP";"";"_";"21";"";-1;6
22;"CP_22";"";"";"";"S'exprimer à l'écrit en langue française";"CP";"";"_";"22";"";-1;7
30;"CP_30";"";"";"";"Pratiquer un raisonnement";"CP";"";"_";"30";"";-1;8
31;"CP_31";"";"";"";"Lire et exploiter des données sous différentes formes";"CP";"";"_";"31";"";-1;9
32;"CP_32";"";"";"";"Communiquer sa démarche ou sa recherche";"CP";"";"_";"32";"";-1;10
35;"CP_35";"";"";"";"Utiliser les outils numériques";"CP";"";"_";"35";"";-1;20
50;"CP_50";"";"";"";"S’impliquer dans son parcours d’orientation";"CP";"";"_";"50";"";-1;21
200;"CD";"COMPÉTENCES DISCIPLINAIRES";"";"";"";"CD";"";"";"";"";-1;200
