"id";"code";"Titre1";"Titre2";"Titre3";"Competence";"T1";"T2";"T3";"Cpt";"Commentaire";"classeType";"ordre"
0;"B2";"COMPÉTENCES TRANSVERSALES";"";"";"";"B2";"";"";"";"";0;0
1;"B2CS";"";"Conduites sociales : comment se comporter au collège ?";"";"";"B2";"CS";"";"";"";0;1
2;"B2CSG1";"";"";"Avoir un comportement responsable";"";"B2";"CS";"G1";"";"";0;2
3;"B2CSG1L1";"";"";"";"Respecter les règles de vie au collège";"B2";"CS";"G1";"L1";"<div><a href=./tmp/Livret_d_accompagnement.pdf target=_blank>Livret d'accompagnement</a> page 5.</div>";0;3
4;"B2CSG1L2";"";"";"";"Connaître les règles d’hygiène et de sécurité et les appliquer";"B2";"CS";"G1";"L2";"<div><a href=./tmp/Livret_d_accompagnement.pdf target=_blank>Livret d'accompagnement</a> pages 5 et 6.</div>";0;4
5;"B2CSG1L3";"";"";"";"Savoir travailler en groupe";"B2";"CS";"G1";"L3";"<div><a href=./tmp/Livret_d_accompagnement.pdf target=_blank>Livret d'accompagnement</a> page 6.</div>";0;5
6;"B2AI";"";"Autonomie et initiative : comment devenir autonome au collège ?";"";"";"B2";"AI";"";"";"";0;6
7;"B2AIG1";"";"";"Être autonome au collège ";"";"B2";"AI";"G1";"";"";0;7
8;"B2AIG1L1";"";"";"";"Préparer son cartable afin d’avoir le matériel nécessaire en classe";"B2";"AI";"G1";"L1";"<div><a href=./tmp/Livret_d_accompagnement.pdf target=_blank>Livret d'accompagnement</a> pages 6 et 7.</div>";0;8
9;"B2AIG1L2";"";"";"";"Apprendre ses leçons et faire ses devoirs";"B2";"AI";"G1";"L2";"<div><a href=./tmp/Livret_d_accompagnement.pdf target=_blank>Livret d'accompagnement</a> pages 7 et 8.</div>";0;9
10;"B2AIG1L3";"";"";"";"Écouter et appliquer les consignes";"B2";"AI";"G1";"L3";"<div><a href=./tmp/Livret_d_accompagnement.pdf target=_blank>Livret d'accompagnement</a> page 9.</div>";0;10
11;"B2AIG3";"";"";"Utiliser des outils";"";"B2";"AI";"G3";"";"";0;11
12;"B2AIG3L1";"";"";"";"Utiliser des dictionnaires, imprimés ou numériques, des ouvrages de grammaires ou des logiciels de correction orthographique";"B2";"AI";"G3";"L1";"<div><a href=./tmp/Livret_d_accompagnement.pdf target=_blank>Livret d'accompagnement</a> page 12.</div>";0;12
13;"B3";"COMPÉTENCES PLURIDISCIPLINAIRES";"";"";"";"B3";"";"";"";"";0;13
14;"B3C1";"";"Compétence 1 : La maîtrise de la langue française";"";"";"B3";"C1";"";"";"";0;14
15;"B3C1G1";"";"";"Lire";"";"B3";"C1";"G1";"";"";0;15
16;"B3C1G1L1";"";"";"";"Dégager l’idée essentielle d’un texte lu ou entendu";"B3";"C1";"G1";"L1";"<div><a href=./tmp/Livret_d_accompagnement.pdf target=_blank>Livret d'accompagnement</a> page 10.</div>";0;16
17;"B3C1G1L3";"";"";"";"Comprendre un énoncé, une consigne";"B3";"C1";"G1";"L3";"<div><a href=./tmp/Livret_d_accompagnement.pdf target=_blank>Livret d'accompagnement</a> page 10.</div>";0;17
18;"B3C1G2";"";"";"Écrire";"";"B3";"C1";"G2";"";"";0;18
19;"B3C1G2L1";"";"";"";"Écrire ou recopier lisiblement et correctement un texte ";"B3";"C1";"G2";"L1";"<div><a href=./tmp/Livret_d_accompagnement.pdf target=_blank>Livret d'accompagnement</a> page 10.</div>";0;19
20;"B3C1G2L2";"";"";"";"Répondre à une question par une phrase complète";"B3";"C1";"G2";"L2";"<div><a href=./tmp/Livret_d_accompagnement.pdf target=_blank>Livret d'accompagnement</a> page 10.</div>";0;20
21;"B3C1G2L3";"";"";"";"Rédiger un texte bref, cohérent, construit en paragraphes…";"B3";"C1";"G2";"L3";"<div><a href=./tmp/Livret_d_accompagnement.pdf target=_blank>Livret d'accompagnement</a> page 11.</div>";0;21
22;"B3C1G2L6";"";"";"";"Utiliser les principales règles d’orthographe… ";"B3";"C1";"G2";"L6";"<div><a href=./tmp/Livret_d_accompagnement.pdf target=_blank>Livret d'accompagnement</a> page 11.</div>";0;22
23;"B3C1G3";"";"";"Dire";"";"B3";"C1";"G3";"";"";0;23
24;"B3C1G3L1";"";"";"";"Prendre part à un échange et adapter sa prise de parole";"B3";"C1";"G3";"L1";"<div><a href=./tmp/Livret_d_accompagnement.pdf target=_blank>Livret d'accompagnement</a> page 11.</div>";0;24
25;"B3C1G3L2";"";"";"";"S'exprimer à l'oral dans un français correct";"B3";"C1";"G3";"L2";"<div><a href=./tmp/Livret_d_accompagnement.pdf target=_blank>Livret d'accompagnement</a> page 12.</div>";0;25
26;"B3C1G3L3";"";"";"";"Rendre compte d’un travail individuel ou collectif";"B3";"C1";"G3";"L3";"<div><a href=./tmp/Livret_d_accompagnement.pdf target=_blank>Livret d'accompagnement</a> page 12.</div>";0;26
27;"B3C3";"";"Compétence 3 : Les principaux éléments de mathématiques et la culture scientifique et technologique";"";"";"B3";"C3";"";"";"";0;27
28;"B3C3G1";"";"";"Pratiquer une démarche scientifique et technologique";"";"B3";"C3";"G1";"";"";0;28
29;"B3C3G1L1";"";"";"";"Observer, rechercher et organiser l’information";"B3";"C3";"G1";"L1";"<div><a href=./tmp/Livret_d_accompagnement.pdf target=_blank>Livret d'accompagnement</a> pages 13, 14 et 15.</div>";0;29
30;"B3C3G1L2";"";"";"";"Engager une démarche, raisonner, argumenter, démontrer";"B3";"C3";"G1";"L2";"<div><a href=./tmp/Livret_d_accompagnement.pdf target=_blank>Livret d'accompagnement</a> page 15.</div>";0;30
31;"B3C3G1L3";"";"";"";"Réaliser, manipuler, calculer, mesurer, appliquer des consignes";"B3";"C3";"G1";"L3";"<div><a href=./tmp/Livret_d_accompagnement.pdf target=_blank>Livret d'accompagnement</a> page 16.</div>";0;31
32;"B3C3G1L4";"";"";"";"Communiquer à l’aide de langage ou d’outils mathématiques, scientifiques ou technologiques adaptés";"B3";"C3";"G1";"L4";"<div><a href=./tmp/Livret_d_accompagnement.pdf target=_blank>Livret d'accompagnement</a> pages 16 et 17.</div>";0;32
33;"B3C3G2";"";"";"Environnement et développement durable";"";"B3";"C3";"G2";"";"";0;33
34;"B3C3G2L1";"";"";"";"Mobiliser ses connaissances pour comprendre des questions liées à  l’environnement et au développement durable";"B3";"C3";"G2";"L1";"";0;34
35;"B3C5";"";"Compétence 5 : La culture humaniste";"";"";"B3";"C5";"";"";"";0;35
36;"B3C5G1";"";"";"Situer dans le temps, l'espace, les civilisations";"";"B3";"C5";"G1";"";"";0;36
37;"B3C5G1L1";"";"";"";"Situer des événements, des œuvres littéraires ou artistiques, des découvertes scientifiques ou techniques, des ensembles géographiques";"B3";"C5";"G1";"L1";"<div><a href=./tmp/Livret_d_accompagnement.pdf target=_blank>Livret d'accompagnement</a> page 18.</div>";0;37
38;"B4";"COMPÉTENCES DISCIPLINAIRES";"";"";"";"B4";"";"";"";"";0;38
39;"B2";"COMPÉTENCES TRANSVERSALES";"";"";"";"B2";"";"";"";"";1;39
40;"B2CS";"";"Compétence 6 : Conduites sociales et civiques";"";"";"B2";"CS";"";"";"";1;40
41;"B2CSG1";"";"";"Avoir un comportement responsable";"";"B2";"CS";"G1";"";"";1;41
42;"B2CSG1L4";"";"";"";"Respecter les règles de vie collective";"B2";"CS";"G1";"L4";"";1;42
43;"B2CSG1L5";"";"";"";"Comprendre l’importance du respect mutuel et accepter toutes les différences";"B2";"CS";"G1";"L5";"";1;43
44;"B2CSG1L6";"";"";"";"Respecter des comportements favorables à sa santé et sa sécurité";"B2";"CS";"G1";"L6";"";1;44
45;"B2AI";"";"Compétence 7 : Autonomie et initiative ";"";"";"B2";"AI";"";"";"";1;45
46;"B2AIG1";"";"";"Être autonome au collège ";"";"B2";"AI";"G1";"";"";1;46
47;"B2AIG1L4";"";"";"";"Être autonome dans son travail : avoir son matériel, apprendre ses leçons, faire correctement ses devoirs.";"B2";"AI";"G1";"L4";"";1;47
48;"B2AIG1L5";"";"";"";"Faire preuve d'initiative en s'engageant dans un projet individuel ou collectif";"B2";"AI";"G1";"L5";"";1;48
49;"B2AIG2";"";"";"Parcours de découverte des métiers et des formations";"";"B2";"AI";"G2";"";"";1;49
50;"B2AIG2L1";"";"";"";"Se familiariser avec l’environnement économique, les entreprises, les métiers de secteurs et de niveaux de qualification variés";"B2";"AI";"G2";"L1";"";1;50
51;"B2AIG2L2";"";"";"";"Être acteur de son parcours de formation et d'orientation ";"B2";"AI";"G2";"L2";"";1;51
52;"B2AIG3";"";"";"Utiliser des outils";"";"B2";"AI";"G3";"";"";1;52
53;"B2AIG3L1";"";"";"";"Utiliser des dictionnaires, imprimés ou numériques, des ouvrages de grammaires ou des logiciels de correction orthographique";"B2";"AI";"G3";"L1";"<div><a href=./tmp/Livret_d_accompagnement.pdf target=_blank>Livret d'accompagnement</a> page 12.</div>";1;53
54;"B3";"COMPÉTENCES PLURIDISCIPLINAIRES";"";"";"";"B3";"";"";"";"";1;54
55;"B3C1";"";"Compétence 1 : La maîtrise de la langue française";"";"";"B3";"C1";"";"";"";1;55
56;"B3C1G1";"";"";"Lire";"";"B3";"C1";"G1";"";"";1;56
57;"B3C1G1L2";"";"";"";"Dégager, par écrit ou oralement, l’essentiel d’un texte lu";"B3";"C1";"G1";"L2";"";1;57
58;"B3C1G1L3";"";"";"";"Comprendre un énoncé, une consigne";"B3";"C1";"G1";"L3";"<div><a href=./tmp/Livret_d_accompagnement.pdf target=_blank>Livret d'accompagnement</a> page 10.</div>";1;58
59;"B3C1G2";"";"";"Écrire";"";"B3";"C1";"G2";"";"";1;59
60;"B3C1G2L4";"";"";"";"Écrire ou recopier lisiblement et sans erreur un texte ";"B3";"C1";"G2";"L4";"";1;60
61;"B3C1G2L5";"";"";"";"Rédiger une phrase complète ou un texte bref, cohérent et ponctué, en réponse à une question ou à partir de consignes données";"B3";"C1";"G2";"L5";"";1;61
62;"B3C1G2L6";"";"";"";"Utiliser les principales règles d’orthographe… ";"B3";"C1";"G2";"L6";"<div><a href=./tmp/Livret_d_accompagnement.pdf target=_blank>Livret d'accompagnement</a> page 11.</div>";1;62
63;"B3C1G3";"";"";"Dire";"";"B3";"C1";"G3";"";"";1;63
64;"B3C1G3L1";"";"";"";"Prendre part à un échange et adapter sa prise de parole";"B3";"C1";"G3";"L1";"<div><a href=./tmp/Livret_d_accompagnement.pdf target=_blank>Livret d'accompagnement</a> page 11.</div>";1;64
65;"B3C1G3L2";"";"";"";"S'exprimer à l'oral dans un français correct";"B3";"C1";"G3";"L2";"<div><a href=./tmp/Livret_d_accompagnement.pdf target=_blank>Livret d'accompagnement</a> page 12.</div>";1;65
66;"B3C1G3L3";"";"";"";"Rendre compte d’un travail individuel ou collectif";"B3";"C1";"G3";"L3";"<div><a href=./tmp/Livret_d_accompagnement.pdf target=_blank>Livret d'accompagnement</a> page 12.</div>";1;66
67;"B3C3";"";"Compétence 3 : Les principaux éléments de mathématiques et la culture scientifique et technologique";"";"";"B3";"C3";"";"";"";1;67
68;"B3C3G1";"";"";"Pratiquer une démarche scientifique et technologique";"";"B3";"C3";"G1";"";"";1;68
69;"B3C3G1L1";"";"";"";"Observer, rechercher et organiser l’information";"B3";"C3";"G1";"L1";"<div><a href=./tmp/Livret_d_accompagnement.pdf target=_blank>Livret d'accompagnement</a> pages 13, 14 et 15.</div>";1;69
70;"B3C3G1L2";"";"";"";"Engager une démarche, raisonner, argumenter, démontrer";"B3";"C3";"G1";"L2";"<div><a href=./tmp/Livret_d_accompagnement.pdf target=_blank>Livret d'accompagnement</a> page 15.</div>";1;70
71;"B3C3G1L3";"";"";"";"Réaliser, manipuler, calculer, mesurer, appliquer des consignes";"B3";"C3";"G1";"L3";"<div><a href=./tmp/Livret_d_accompagnement.pdf target=_blank>Livret d'accompagnement</a> page 16.</div>";1;71
72;"B3C3G1L4";"";"";"";"Communiquer à l’aide de langage ou d’outils mathématiques, scientifiques ou technologiques adaptés";"B3";"C3";"G1";"L4";"<div><a href=./tmp/Livret_d_accompagnement.pdf target=_blank>Livret d'accompagnement</a> pages 16 et 17.</div>";1;72
73;"B3C3G2";"";"";"Environnement et développement durable";"";"B3";"C3";"G2";"";"";1;73
74;"B3C3G2L1";"";"";"";"Mobiliser ses connaissances pour comprendre des questions liées à  l’environnement et au développement durable";"B3";"C3";"G2";"L1";"";1;74
75;"B3C5";"";"Compétence 5 : La culture humaniste";"";"";"B3";"C5";"";"";"";1;75
76;"B3C5G1";"";"";"Situer dans le temps, l'espace, les civilisations";"";"B3";"C5";"G1";"";"";1;76
77;"B3C5G1L1";"";"";"";"Situer des événements, des œuvres littéraires ou artistiques, des découvertes scientifiques ou techniques, des ensembles géographiques";"B3";"C5";"G1";"L1";"<div><a href=./tmp/Livret_d_accompagnement.pdf target=_blank>Livret d'accompagnement</a> page 18.</div>";1;77
78;"B3C5G1L2";"";"";"";"Mobiliser ses connaissances pour donner du sens à l’actualité";"B3";"C5";"G1";"L2";"";1;78
79;"B4";"COMPÉTENCES DISCIPLINAIRES";"";"";"";"B4";"";"";"";"";1;79
