"id";"code";"Titre1";"Titre2";"Titre3";"Competence";"T1";"T2";"T3";"Cpt";"Commentaire";"classeType";"ordre"
1000;"HIDA-P3";"HIDA";"";"";"";"HIDA-P3";"";"";"";"";-1;0
1100;"HIDA-P3C1";"";"";"COMPÉTENCE 1 - LA MAÎTRISE DE LA LANGUE FRANÇAISE";"";"HIDA-P3";"";"C1";"";"";-1;1
1110;"HIDA-P3C1T3L3";"";"";"";"Adapter sa prise de parole à la situation de communication.";"HIDA-P3";"";"C1";"T3L3";"";-1;2
1120;"HIDA-P3C1T3L4";"";"";"";"Participer à un débat, à un échange verbal.";"HIDA-P3";"";"C1";"T3L4";"";-1;3
1500;"HIDA-P3C5";"";"";"COMPÉTENCE 5 - LA CULTURE HUMANISTE";"";"HIDA-P3";"";"C5";"";"";-1;4
1510;"HIDA-P3C5T2L3";"";"";"";"Établir des liens entre les œuvres (littéraires, artistiques) pour mieux les comprendre.";"HIDA-P3";"";"C5";"T2L3";"";-1;5
1520;"HIDA-P3C5T3L1";"";"";"";"Lire et employer différents langages : Textes - Graphiques - Cartes - Images - Musique.";"HIDA-P3";"";"C5";"T3L1";"";-1;6
1530;"HIDA-P3C5T4L3";"";"";"";"Être capable de porter un regard critique sur un fait, un document, une œuvre.";"HIDA-P3";"";"C5";"T4L3";"";-1;7
1700;"HIDA-P3C7";"";"";"COMPÉTENCE 7 - L’AUTONOMIE ET L’INITIATIVE";"";"HIDA-P3";"";"C7";"";"";-1;8
1710;"HIDA-P3C7T2L1";"";"";"";"Être autonome dans son travail : savoir l’organiser, le planifier, l’anticiper, rechercher et sélectionner des informations utiles.";"HIDA-P3";"";"C7";"T2L1";"";-1;9
1720;"HIDA-P3C7T3L1";"";"";"";"S’engager dans un projet individuel.";"HIDA-P3";"";"C7";"T3L1";"";-1;10
1730;"HIDA-P3C7T3L2";"";"";"";"S’intégrer et coopérer dans un projet collectif.";"HIDA-P3";"";"C7";"T3L2";"";-1;11
