"id";"Name";"Label"
1;"M1";"8h25-9h25"
2;"M2";"9h25-10h25"
3;"M3";"10h40-11h40"
4;"M4";"11h40-12h40"
10;"Pause";"Pendant la pause déjeuner"
20;"S0";"13h-14h"
21;"S1";"14h-15h"
22;"S2";"15h15-16h15"
23;"S3";"16h15-17h15"
24;"S4";"17h15-18h15"
30;"Autres";"en dehors des horaires prédéfinis"
